TidyRtutorial
…
Using gap_long, calcuate the mean life expectancy for each continet from 1982 to 2007 over time.

continents <- gap_long %>% 
  filter(obs_type == "lifeExp",
         year > 1981) %>% 
  group_by(continent, year) %>% 
  summarize(mean_le = mean(obs_values)) %>% 
  ungroup()
continents #check

## # A tibble: 30 x 3
##    continent  year mean_le
##    <chr>     <int>   <dbl>
##  1 Africa     1982    51.6
##  2 Africa     1987    53.3
##  3 Africa     1992    53.6
##  4 Africa     1997    53.6
##  5 Africa     2002    53.3
##  6 Africa     2007    54.8
##  7 Americas   1982    66.2
##  8 Americas   1987    68.1
##  9 Americas   1992    69.6
## 10 Americas   1997    71.2
## # ... with 20 more rows
…
